{
	"info": {
		"_postman_id": "969cb096-ea46-4f7d-9d11-5e490a227fc1",
		"name": "myproducts",
		"schema": "https://schema.getpostman.com/json/collection/v2.1.0/collection.json"
	},
	"item": [
		{
			"name": "products",
			"item": [
				{
					"name": "GET:/products",
					"request": {
						"auth": {
							"type": "bearer",
							"bearer": [
								{
									"key": "token",
									"value": "{{token}}",
									"type": "string"
								}
							]
						},
						"method": "GET",
						"header": [
							{
								"key": "Authorization",
								"value": "Bearer eyJhbGciOiJIUzI1NiIsInR5cCI6IkpXVCJ9.eyJ1c2VybmFtZSI6InVzZXIiLCJyb2xlcyI6WyJBRE1JTiJdLCJpYXQiOjE2NDc3NjU4NjYsImV4cCI6MTY0Nzg1MjI2Nn0.E2JK9n5hjDuAI7_up7XbjUS9nZ6zFxF4lBL9DEjL93M",
								"type": "text",
								"disabled": true
							}
						],
						"url": {
							"raw": "http://localhost:3000/products",
							"protocol": "http",
							"host": [
								"localhost"
							],
							"port": "3000",
							"path": [
								"products"
							]
						}
					},
					"response": []
				},
				{
					"name": "GET:/products/:id",
					"protocolProfileBehavior": {
						"disableBodyPruning": true
					},
					"request": {
						"auth": {
							"type": "bearer",
							"bearer": [
								{
									"key": "token",
									"value": "{{token}}",
									"type": "string"
								}
							]
						},
						"method": "GET",
						"header": [],
						"body": {
							"mode": "urlencoded",
							"urlencoded": []
						},
						"url": {
							"raw": "http://localhost:3000/products/62226a159c75534cd2e56e02",
							"protocol": "http",
							"host": [
								"localhost"
							],
							"port": "3000",
							"path": [
								"products",
								"62226a159c75534cd2e56e02"
							]
						}
					},
					"response": []
				},
				{
					"name": "DELETE:/products/:id",
					"request": {
						"method": "DELETE",
						"header": [],
						"url": {
							"raw": "http://localhost:3000/products/622271cd7a60704766c11ff5",
							"protocol": "http",
							"host": [
								"localhost"
							],
							"port": "3000",
							"path": [
								"products",
								"622271cd7a60704766c11ff5"
							]
						}
					},
					"response": []
				},
				{
					"name": "PUT:/products/:id",
					"request": {
						"method": "PUT",
						"header": [],
						"body": {
							"mode": "urlencoded",
							"urlencoded": [
								{
									"key": "id",
									"value": "1",
									"type": "text",
									"disabled": true
								},
								{
									"key": "name",
									"value": "Android 2000",
									"type": "text"
								},
								{
									"key": "price",
									"value": "1000",
									"type": "text"
								}
							]
						},
						"url": {
							"raw": "http://localhost:3000/products/62226a159c75534cd2e56e04",
							"protocol": "http",
							"host": [
								"localhost"
							],
							"port": "3000",
							"path": [
								"products",
								"62226a159c75534cd2e56e04"
							]
						}
					},
					"response": []
				},
				{
					"name": "POST:/products",
					"request": {
						"method": "POST",
						"header": [],
						"body": {
							"mode": "urlencoded",
							"urlencoded": [
								{
									"key": "_id",
									"value": "",
									"type": "text",
									"disabled": true
								},
								{
									"key": "name",
									"value": "Android 2000",
									"type": "text"
								},
								{
									"key": "price",
									"value": "1000",
									"type": "text"
								}
							]
						},
						"url": {
							"raw": "http://localhost:3000/products",
							"protocol": "http",
							"host": [
								"localhost"
							],
							"port": "3000",
							"path": [
								"products"
							]
						}
					},
					"response": []
				}
			]
		},
		{
			"name": "users",
			"item": [
				{
					"name": "GET:/users",
					"protocolProfileBehavior": {
						"disableBodyPruning": true
					},
					"request": {
						"auth": {
							"type": "bearer",
							"bearer": [
								{
									"key": "token",
									"value": "{{admin_token}}",
									"type": "string"
								}
							]
						},
						"method": "GET",
						"header": [
							{
								"key": "Authorization",
								"value": "Bearer {{admin_token}}",
								"type": "text"
							}
						],
						"body": {
							"mode": "urlencoded",
							"urlencoded": []
						},
						"url": {
							"raw": "http://localhost:3000/users",
							"protocol": "http",
							"host": [
								"localhost"
							],
							"port": "3000",
							"path": [
								"users"
							]
						}
					},
					"response": []
				},
				{
					"name": "GET:/users/:id",
					"request": {
						"method": "GET",
						"header": [],
						"url": {
							"raw": "http://localhost:3000/users/6236d9e9bc13c8a6b5cf01a4",
							"protocol": "http",
							"host": [
								"localhost"
							],
							"port": "3000",
							"path": [
								"users",
								"6236d9e9bc13c8a6b5cf01a4"
							]
						}
					},
					"response": []
				},
				{
					"name": "DELETE:/users/:id",
					"request": {
						"method": "DELETE",
						"header": [],
						"url": {
							"raw": "http://localhost:3000/users/6236d9e9bc13c8a6b5cf01a4",
							"protocol": "http",
							"host": [
								"localhost"
							],
							"port": "3000",
							"path": [
								"users",
								"6236d9e9bc13c8a6b5cf01a4"
							]
						}
					},
					"response": []
				},
				{
					"name": "POST:/users",
					"request": {
						"method": "POST",
						"header": [],
						"body": {
							"mode": "urlencoded",
							"urlencoded": [
								{
									"key": "_id",
									"value": "",
									"description": "user",
									"type": "text",
									"disabled": true
								},
								{
									"key": "username",
									"value": "user2",
									"type": "text"
								},
								{
									"key": "password",
									"value": "password",
									"type": "text"
								},
								{
									"key": "roles[]",
									"value": "USER",
									"type": "text"
								},
								{
									"key": "roles[]",
									"value": "ADMIN",
									"type": "text"
								}
							]
						},
						"url": {
							"raw": "http://localhost:3000/users",
							"protocol": "http",
							"host": [
								"localhost"
							],
							"port": "3000",
							"path": [
								"users"
							]
						}
					},
					"response": []
				},
				{
					"name": "PUT:/users/:id",
					"request": {
						"method": "PUT",
						"header": [],
						"body": {
							"mode": "urlencoded",
							"urlencoded": [
								{
									"key": "id",
									"value": "-1",
									"type": "text",
									"disabled": true
								},
								{
									"key": "username",
									"value": "user2",
									"type": "text"
								},
								{
									"key": "password",
									"value": "password",
									"type": "text"
								},
								{
									"key": "roles[]",
									"value": "ADMIN",
									"type": "text"
								},
								{
									"key": "roles[]",
									"value": "USER",
									"type": "text"
								}
							]
						},
						"url": {
							"raw": "http://localhost:3000/users/6236de76a3e4e2d05fe483cf",
							"protocol": "http",
							"host": [
								"localhost"
							],
							"port": "3000",
							"path": [
								"users",
								"6236de76a3e4e2d05fe483cf"
							]
						}
					},
					"response": []
				}
			]
		},
		{
			"name": "auth",
			"item": [
				{
					"name": "auth/login",
					"request": {
						"method": "POST",
						"header": [],
						"body": {
							"mode": "urlencoded",
							"urlencoded": [
								{
									"key": "username",
									"value": "user@mail.com",
									"type": "text"
								},
								{
									"key": "password",
									"value": "password",
									"type": "text"
								}
							]
						},
						"url": {
							"raw": "http://localhost:3000/auth/login",
							"protocol": "http",
							"host": [
								"localhost"
							],
							"port": "3000",
							"path": [
								"auth",
								"login"
							]
						}
					},
					"response": []
				},
				{
					"name": "auth/login Admin",
					"request": {
						"method": "POST",
						"header": [],
						"body": {
							"mode": "urlencoded",
							"urlencoded": [
								{
									"key": "username",
									"value": "admin@mail.com",
									"type": "text"
								},
								{
									"key": "password",
									"value": "password",
									"type": "text"
								}
							]
						},
						"url": {
							"raw": "http://localhost:3000/auth/login",
							"protocol": "http",
							"host": [
								"localhost"
							],
							"port": "3000",
							"path": [
								"auth",
								"login"
							]
						}
					},
					"response": []
				}
			]
		},
		{
			"name": "events",
			"item": [
				{
					"name": "events",
					"request": {
						"method": "GET",
						"header": [],
						"url": {
							"raw": "http://localhost:3000/events?startDate=2022-03-01 00:00&endDate=2022-03-31 23:59",
							"protocol": "http",
							"host": [
								"localhost"
							],
							"port": "3000",
							"path": [
								"events"
							],
							"query": [
								{
									"key": "startDate",
									"value": "2022-03-01 00:00"
								},
								{
									"key": "endDate",
									"value": "2022-03-31 23:59"
								}
							]
						}
					},
					"response": []
				}
			]
		}
	],
	"event": [
		{
			"listen": "prerequest",
			"script": {
				"type": "text/javascript",
				"exec": [
					""
				]
			}
		},
		{
			"listen": "test",
			"script": {
				"type": "text/javascript",
				"exec": [
					""
				]
			}
		}
	],
	"variable": [
		{
			"key": "token",
			"value": "",
			"type": "string"
		},
		{
			"key": "admin_token",
			"value": "",
			"type": "string"
		}
	]
}